{
	"additionalNodes": [ {
		"children": [],
		"id": "TBcFMsdnTdCM9YGBitVHf0YlSdvUMTUy",
		"nodeType": "reference",
		"parameters": [ {
			"name": "behaviourName",
			"value": "nota_hrdlicm7_lucretia.scoutHill"
		} ],
		"referenceInputs": [ {
			"name": "scout",
			"value": "units[4]"
		}, {
			"name": "location",
			"value": "hills[4][\"center\"]"
		} ],
		"referenceOutputs": [ {
			"name": "enemyLocation",
			"value": "enemyCoords"
		} ]
	} ],
	"additionalParameters": {
		"root": {
			"height": 88,
			"width": 180
		}
	},
	"inputs": [],
	"outputs": [],
	"properties": {
		"103PwqaSHHLqjZsGbgzAtASuhmocomX5": {
			"height": 173,
			"title": "reference",
			"width": 278,
			"x": 2115,
			"y": 262
		},
		"1neEC5a0QNFdGKVeExu6f7gkZJQss4gE": {
			"height": 70,
			"title": "parallel",
			"width": 202,
			"x": 1782,
			"y": 254
		},
		"2FSpyKkuoBEM3jnQDHuY7PWdbvtrq2nN": {
			"height": 74,
			"title": "nota_hrdlicm7_lucretia.UnloadToPosition",
			"width": 321,
			"x": 3464,
			"y": 83
		},
		"2bUzJj8gXtRv5vaz9QwyVCGIpci5yWz0": {
			"height": 130,
			"title": "reference",
			"width": 381,
			"x": 3043,
			"y": -77
		},
		"2rLhAvsjlH6JkurZmbrgc5aR5GZCUj8z": {
			"height": 72,
			"title": "wait",
			"width": 131,
			"x": 3065,
			"y": -166
		},
		"8GCaIaaDO6Pc1rOepXvh7w7TrQU7ZkHl": {
			"height": 70,
			"title": "parallel",
			"width": 202,
			"x": 3205,
			"y": 100
		},
		"9Kdxl7cu9ClBj4zHaOy4egiuBJISP9Qw": {
			"height": 112,
			"title": "nota_hrdlicm7_lucretia.MoveCustomGroup",
			"width": 333,
			"x": 3453,
			"y": 202
		},
		"9mRegfbAlJqNRa8ZnnDjDGzaOomjqZLT": {
			"height": 54,
			"title": "failure",
			"width": 131,
			"x": 2165,
			"y": 8
		},
		"CoTXNIx6cb6jmNxtUftZZrLU5uPAa1Ab": {
			"height": 70,
			"title": "roleSplit",
			"width": 202,
			"x": 538,
			"y": 74
		},
		"DndOleiTi6uWeo8GYfEYbhSLkM7XrMEg": {
			"height": 90,
			"title": "luaCondition",
			"width": 194,
			"x": 1341,
			"y": -28
		},
		"HQ03MiuxmbEidyYtKWXYHBKFNKyqu54Q": {
			"height": 94,
			"title": "store",
			"width": 321,
			"x": 2036,
			"y": 506
		},
		"KL5iEKtew4ozUYaSTVBsQDLh2b0PPPip": {
			"height": 72,
			"title": "echo",
			"width": 340,
			"x": 2057,
			"y": -94
		},
		"Qa7GCyjHTscD8p6g2xkipkptoJxy2ZH8": {
			"height": 173,
			"title": "reference",
			"width": 278,
			"x": 2143,
			"y": 78
		},
		"TBcFMsdnTdCM9YGBitVHf0YlSdvUMTUy": {
			"height": 173,
			"title": "reference (WIP, az bude fungovat enemyLocation)",
			"width": 401,
			"x": 2410,
			"y": 388
		},
		"UJfV5RPnCX5Mvt7Z9t9tZDDSSGdtOKwx": {
			"height": 70,
			"title": "setup",
			"width": 202,
			"x": 520,
			"y": -131
		},
		"XN1pnHSZ1peXmBxfp38efA5AY3ZJ1uRu": {
			"height": 60,
			"title": "sequence",
			"width": 143,
			"x": 1819,
			"y": 5
		},
		"aStTtrWWSDa3KKlLqFOLkXIi85KKPRIm": {
			"height": 92,
			"title": "store",
			"width": 182,
			"x": 997,
			"y": -152
		},
		"eOUontcWG6IgYPBMX9aAIo8ZsGkmXJYw": {
			"height": 60,
			"title": "repeat",
			"width": 131,
			"x": 2419,
			"y": -194
		},
		"gqIvtgp3lOcJ5cI6jEZGW5szQX9F9ZVj": {
			"height": 60,
			"title": "sequence",
			"width": 143,
			"x": 1607,
			"y": 603
		},
		"jWWhK13UrudnuSDNPdmjG6VFbT7GQh3v": {
			"height": 94,
			"title": "store",
			"width": 366,
			"x": 992,
			"y": -253
		},
		"ltuEALkO0xLoDZWHkI2igiBHijBNpotn": {
			"height": 60,
			"title": "sequence",
			"width": 143,
			"x": 285,
			"y": 13
		},
		"mrI238oWsK4UvZcMkjxJPcGrUvw4aLj2": {
			"height": 173,
			"title": "reference",
			"width": 278,
			"x": 2445,
			"y": 180
		},
		"pQaLptIH3tdUGrqYqcJwBGjMJUAheglM": {
			"height": 60,
			"title": "sequence",
			"width": 143,
			"x": 2706,
			"y": -8
		},
		"s9qWLE1S210F4DwSZZQFAkLA71ERkOvS": {
			"height": 72,
			"title": "echo",
			"width": 330,
			"x": 1852,
			"y": 667
		},
		"tXZgEwfbPIJG6UYJ2tl6mzAFCHoPsFyn": {
			"height": 60,
			"title": "repeat",
			"width": 131,
			"x": 3028,
			"y": 66
		},
		"v1yjStCoa04k3kRzTLnjsCsdM8KSWVqk": {
			"height": 54,
			"title": "failure",
			"width": 131,
			"x": 1831,
			"y": 805
		},
		"vV9paFahFh3F73ier8jKXl6y0HxmVuH1": {
			"height": 90,
			"title": "luaCondition",
			"width": 194,
			"x": 1344,
			"y": 248
		}
	},
	"roles": [ {
		"categories": [ "nota_hrdlicm7_lucretia.bear" ],
		"name": "transport"
	}, {
		"categories": [],
		"name": "Role 1"
	} ],
	"root": {
		"children": [ {
			"children": [ {
				"children": [],
				"id": "jWWhK13UrudnuSDNPdmjG6VFbT7GQh3v",
				"nodeType": "luaCommand",
				"parameters": [ {
					"name": "var",
					"value": "hills"
				}, {
					"name": "value",
					"value": "nota_hrdlicm7_lucretia.FindHillCoordinates()"
				}, {
					"name": "scriptName",
					"value": "store"
				} ],
				"scriptName": "store"
			}, {
				"children": [],
				"id": "aStTtrWWSDa3KKlLqFOLkXIi85KKPRIm",
				"nodeType": "luaCommand",
				"parameters": [ {
					"name": "var",
					"value": "enemyCoords"
				}, {
					"name": "value",
					"value": "hills[4][\"center\"]"
				}, {
					"name": "scriptName",
					"value": "store"
				} ],
				"scriptName": "store"
			} ],
			"id": "UJfV5RPnCX5Mvt7Z9t9tZDDSSGdtOKwx",
			"nodeType": "parallel",
			"parameters": [ {
				"name": "mode",
				"value": "all-success"
			} ]
		}, {
			"children": [ {
				"children": [ {
					"children": [ {
						"children": [ {
							"children": [],
							"id": "2rLhAvsjlH6JkurZmbrgc5aR5GZCUj8z",
							"nodeType": "wait",
							"parameters": [ {
								"name": "time",
								"value": 1
							} ]
						}, {
							"children": [],
							"id": "2bUzJj8gXtRv5vaz9QwyVCGIpci5yWz0",
							"nodeType": "reference",
							"parameters": [ {
								"name": "behaviourName",
								"value": "nota_hrdlicm7_lucretia.transportUnits"
							} ],
							"referenceInputs": [ {
								"name": "unitsToLoad",
								"value": "combatUnits"
							} ],
							"referenceOutputs": []
						}, {
							"children": [ {
								"children": [ {
									"children": [],
									"id": "2FSpyKkuoBEM3jnQDHuY7PWdbvtrq2nN",
									"nodeType": "luaCommand",
									"parameters": [ {
										"name": "position",
										"value": "hills[4][\"center\"]"
									}, {
										"name": "scriptName",
										"value": "nota_hrdlicm7_lucretia.UnloadToPosition"
									} ],
									"scriptName": "nota_hrdlicm7_lucretia.UnloadToPosition"
								}, {
									"children": [],
									"id": "9Kdxl7cu9ClBj4zHaOy4egiuBJISP9Qw",
									"nodeType": "luaCommand",
									"parameters": [ {
										"name": "position",
										"value": "hills[4][\"center\"]"
									}, {
										"name": "unitsToMove",
										"value": "combatUnits"
									}, {
										"name": "fight",
										"value": "true"
									}, {
										"name": "scriptName",
										"value": "nota_hrdlicm7_lucretia.MoveCustomGroup"
									} ],
									"scriptName": "nota_hrdlicm7_lucretia.MoveCustomGroup"
								} ],
								"id": "8GCaIaaDO6Pc1rOepXvh7w7TrQU7ZkHl",
								"nodeType": "parallel",
								"parameters": [ {
									"name": "mode",
									"value": "all-success"
								} ]
							} ],
							"id": "tXZgEwfbPIJG6UYJ2tl6mzAFCHoPsFyn",
							"nodeType": "repeat",
							"parameters": []
						} ],
						"id": "pQaLptIH3tdUGrqYqcJwBGjMJUAheglM",
						"nodeType": "sequence",
						"parameters": []
					} ],
					"id": "eOUontcWG6IgYPBMX9aAIo8ZsGkmXJYw",
					"nodeType": "repeat",
					"parameters": []
				}, {
					"children": [ {
						"children": [],
						"id": "KL5iEKtew4ozUYaSTVBsQDLh2b0PPPip",
						"nodeType": "luaCommand",
						"parameters": [ {
							"name": "msg",
							"value": "\"Needs at least 1 transport unit to work!\""
						}, {
							"name": "scriptName",
							"value": "echo"
						} ],
						"scriptName": "echo"
					}, {
						"children": [],
						"id": "9mRegfbAlJqNRa8ZnnDjDGzaOomjqZLT",
						"nodeType": "failure",
						"parameters": []
					} ],
					"id": "XN1pnHSZ1peXmBxfp38efA5AY3ZJ1uRu",
					"nodeType": "sequence",
					"parameters": []
				} ],
				"id": "DndOleiTi6uWeo8GYfEYbhSLkM7XrMEg",
				"nodeType": "luaCondition",
				"parameters": [ {
					"name": "expression",
					"value": "#units >= 1"
				}, {
					"name": "repeat",
					"value": "false"
				} ]
			}, {
				"children": [ {
					"children": [ {
						"children": [],
						"id": "Qa7GCyjHTscD8p6g2xkipkptoJxy2ZH8",
						"nodeType": "reference",
						"parameters": [ {
							"name": "behaviourName",
							"value": "nota_hrdlicm7_lucretia.scoutHill"
						} ],
						"referenceInputs": [ {
							"name": "scout",
							"value": "units[1]"
						}, {
							"name": "location",
							"value": "hills[1][\"center\"]"
						} ],
						"referenceOutputs": [ {
							"name": "enemyLocation",
							"value": "enemyCoords"
						} ]
					}, {
						"children": [],
						"id": "mrI238oWsK4UvZcMkjxJPcGrUvw4aLj2",
						"nodeType": "reference",
						"parameters": [ {
							"name": "behaviourName",
							"value": "nota_hrdlicm7_lucretia.scoutHill"
						} ],
						"referenceInputs": [ {
							"name": "scout",
							"value": "units[3]"
						}, {
							"name": "location",
							"value": "hills[3][\"center\"]"
						} ],
						"referenceOutputs": [ {
							"name": "enemyLocation",
							"value": "enemyCoords"
						} ]
					}, {
						"children": [],
						"id": "103PwqaSHHLqjZsGbgzAtASuhmocomX5",
						"nodeType": "reference",
						"parameters": [ {
							"name": "behaviourName",
							"value": "nota_hrdlicm7_lucretia.scoutHill"
						} ],
						"referenceInputs": [ {
							"name": "scout",
							"value": "units[2]"
						}, {
							"name": "location",
							"value": "hills[2][\"center\"]"
						} ],
						"referenceOutputs": [ {
							"name": "enemyLocation",
							"value": "enemyCoords"
						} ]
					}, {
						"children": [],
						"id": "HQ03MiuxmbEidyYtKWXYHBKFNKyqu54Q",
						"nodeType": "luaCommand",
						"parameters": [ {
							"name": "var",
							"value": "combatUnits"
						}, {
							"name": "value",
							"value": "nota_hrdlicm7_lucretia.SplitUnits(4,0)"
						}, {
							"name": "scriptName",
							"value": "store"
						} ],
						"scriptName": "store"
					} ],
					"id": "1neEC5a0QNFdGKVeExu6f7gkZJQss4gE",
					"nodeType": "parallel",
					"parameters": [ {
						"name": "mode",
						"value": "all-success"
					} ]
				}, {
					"children": [ {
						"children": [],
						"id": "s9qWLE1S210F4DwSZZQFAkLA71ERkOvS",
						"nodeType": "luaCommand",
						"parameters": [ {
							"name": "msg",
							"value": "\"Needs at least 4 combat units to work!\""
						}, {
							"name": "scriptName",
							"value": "echo"
						} ],
						"scriptName": "echo"
					}, {
						"children": [],
						"id": "v1yjStCoa04k3kRzTLnjsCsdM8KSWVqk",
						"nodeType": "failure",
						"parameters": []
					} ],
					"id": "gqIvtgp3lOcJ5cI6jEZGW5szQX9F9ZVj",
					"nodeType": "sequence",
					"parameters": []
				} ],
				"id": "vV9paFahFh3F73ier8jKXl6y0HxmVuH1",
				"nodeType": "luaCondition",
				"parameters": [ {
					"name": "expression",
					"value": "#units >= 4"
				}, {
					"name": "repeat",
					"value": "false"
				} ]
			} ],
			"id": "CoTXNIx6cb6jmNxtUftZZrLU5uPAa1Ab",
			"nodeType": "roleSplit",
			"parameters": [ {
				"name": "mode",
				"value": "all-success"
			} ]
		} ],
		"id": "ltuEALkO0xLoDZWHkI2igiBHijBNpotn",
		"nodeType": "sequence",
		"parameters": []
	}
}