{
	"additionalNodes": [],
	"additionalParameters": {
		"root": {
			"height": 108,
			"width": 231
		}
	},
	"inputs": [ {
		"command": "Variable",
		"name": "unitsToLoad"
	} ],
	"outputs": [],
	"properties": {
		"7LP2KAxtiuMeNg1IVAwXFPNMUG8VeBeI": {
			"height": 70,
			"title": "roleSplit",
			"width": 202,
			"x": 596,
			"y": -53
		},
		"Cqz7dVu8rwoEtnoSf6DZ5Q9YdYTmxMIF": {
			"height": 72,
			"title": "nota_hrdlicm7_lucretia.LoadToTransportGroup",
			"width": 360,
			"x": 816,
			"y": -53
		},
		"KVPR49p090A0gsHwEoMiB37z8HD59GF7": {
			"height": 90,
			"title": "luaCondition",
			"width": 304,
			"x": 241,
			"y": -162
		},
		"zUngXKllABl7k3DuS1IAA5FkyCJo5bgU": {
			"height": 72,
			"title": "echo",
			"width": 245,
			"x": 706,
			"y": 142
		}
	},
	"roles": [ {
		"categories": [ "nota_hrdlicm7_lucretia.bear" ],
		"name": "Transport"
	}, {
		"categories": [],
		"name": "Role 1"
	} ],
	"root": {
		"children": [ {
			"children": [ {
				"children": [],
				"id": "Cqz7dVu8rwoEtnoSf6DZ5Q9YdYTmxMIF",
				"nodeType": "luaCommand",
				"parameters": [ {
					"name": "unitsToMove",
					"value": "unitsToLoad"
				}, {
					"name": "scriptName",
					"value": "nota_hrdlicm7_lucretia.LoadToTransportGroup"
				} ],
				"scriptName": "nota_hrdlicm7_lucretia.LoadToTransportGroup"
			} ],
			"id": "7LP2KAxtiuMeNg1IVAwXFPNMUG8VeBeI",
			"nodeType": "roleSplit",
			"parameters": [ {
				"name": "mode",
				"value": "all-success"
			} ]
		}, {
			"children": [],
			"id": "zUngXKllABl7k3DuS1IAA5FkyCJo5bgU",
			"nodeType": "luaCommand",
			"parameters": [ {
				"name": "msg",
				"value": "\"Trying to load zero units.\""
			}, {
				"name": "scriptName",
				"value": "echo"
			} ],
			"scriptName": "echo"
		} ],
		"id": "KVPR49p090A0gsHwEoMiB37z8HD59GF7",
		"nodeType": "luaCondition",
		"parameters": [ {
			"name": "expression",
			"value": "unitsToLoad ~= nil and #unitsToLoad > 0"
		}, {
			"name": "repeat",
			"value": "false"
		} ]
	}
}