{
	"additionalNodes": [ {
		"children": [],
		"id": "tAIa4F6cQ5w75Xa5m5NXcRvYPo7Mzq1T",
		"nodeType": "roleSplit",
		"parameters": [ {
			"name": "mode",
			"value": "all-success"
		} ]
	} ],
	"additionalParameters": {
		"root": {
			"height": 128,
			"width": 216
		}
	},
	"inputs": [ {
		"command": "BETS_UNIT",
		"name": "target"
	}, {
		"command": "BETS_POSITION",
		"name": "drop"
	} ],
	"outputs": [],
	"properties": {
		"2NOeQaJM3wVRzFSUQbeacQhk7rb4Pz3T": {
			"height": 60,
			"title": "sequence",
			"width": 143,
			"x": 486,
			"y": -35
		},
		"8qrJqvTHd2xropyqLQP4tnouckCROzcV": {
			"height": 72,
			"title": "nota_hrdlicm7_lucretia.UnloadToPosition",
			"width": 321,
			"x": 691,
			"y": 158
		},
		"GikruV38OxShsBqL3t2tzfbq98I2fff3": {
			"height": 72,
			"title": "nota_hrdlicm7_lucretia.LoadUnitToTransport",
			"width": 345,
			"x": 656,
			"y": -103
		},
		"Tpm1FOMybL2B20MoDqw18IaGP1QJ2JNx": {
			"height": 72,
			"title": "wait",
			"width": 131,
			"x": 706,
			"y": 82
		},
		"cEGUawBGNZzDLVvPwqlcLkjy8lTXnDWq": {
			"height": 90,
			"title": "Common.move",
			"width": 178,
			"x": 698,
			"y": -16
		},
		"tAIa4F6cQ5w75Xa5m5NXcRvYPo7Mzq1T": {
			"height": 70,
			"title": "roleSplit",
			"width": 202,
			"x": 269,
			"y": 106
		}
	},
	"roles": [ {
		"categories": [ "nota_hrdlicm7_lucretia.atlas" ],
		"name": "Role 0"
	} ],
	"root": {
		"children": [ {
			"children": [],
			"id": "GikruV38OxShsBqL3t2tzfbq98I2fff3",
			"nodeType": "luaCommand",
			"parameters": [ {
				"name": "unitToMove",
				"value": "target[1]"
			}, {
				"name": "scriptName",
				"value": "nota_hrdlicm7_lucretia.LoadUnitToTransport"
			} ],
			"scriptName": "nota_hrdlicm7_lucretia.LoadUnitToTransport"
		}, {
			"children": [],
			"id": "cEGUawBGNZzDLVvPwqlcLkjy8lTXnDWq",
			"nodeType": "luaCommand",
			"parameters": [ {
				"name": "pos",
				"value": "drop"
			}, {
				"name": "fight",
				"value": "false"
			}, {
				"name": "scriptName",
				"value": "Common.move"
			} ],
			"scriptName": "Common.move"
		}, {
			"children": [],
			"id": "Tpm1FOMybL2B20MoDqw18IaGP1QJ2JNx",
			"nodeType": "wait",
			"parameters": [ {
				"name": "time",
				"value": 2
			} ]
		}, {
			"children": [],
			"id": "8qrJqvTHd2xropyqLQP4tnouckCROzcV",
			"nodeType": "luaCommand",
			"parameters": [ {
				"name": "position",
				"value": "drop"
			}, {
				"name": "scriptName",
				"value": "nota_hrdlicm7_lucretia.UnloadToPosition"
			} ],
			"scriptName": "nota_hrdlicm7_lucretia.UnloadToPosition"
		} ],
		"id": "2NOeQaJM3wVRzFSUQbeacQhk7rb4Pz3T",
		"nodeType": "sequence",
		"parameters": []
	}
}