{
	"additionalNodes": [],
	"additionalParameters": {
		"root": {
			"height": 150,
			"width": 216
		}
	},
	"inputs": [ {
		"command": "BETS_UNIT",
		"name": "scout"
	}, {
		"command": "BETS_POSITION",
		"name": "location"
	} ],
	"outputs": [ {
		"name": "enemyLocation"
	} ],
	"properties": {
		"8jTvZJ4Ew2F9BcVvb5eM7XcTXovyBeIK": {
			"height": 94,
			"title": "store",
			"width": 461,
			"x": 1038,
			"y": -262
		},
		"IIjPoDKnC8CiHpbvXHHVpf5jOjzoNOoh": {
			"height": 60,
			"title": "(WIP DOES NOT WORK)",
			"width": 241,
			"x": 701,
			"y": -133
		},
		"Ild5a02sGK6OLTACkKB0b5PwBY9B06Od": {
			"height": 54,
			"title": "failure",
			"width": 131,
			"x": 1014,
			"y": -39
		},
		"TCDNOhR81w8SxsLwgzE2FUw0llvmPxc1": {
			"height": 72,
			"title": "echo",
			"width": 191,
			"x": 998,
			"y": -162
		},
		"X1OjvniwsFUvkD5ixWyYlxQnCqC83bB3": {
			"height": 112,
			"title": "nota_hrdlicm7_lucretia.MoveCustomGroup",
			"width": 333,
			"x": 882,
			"y": 58
		},
		"c9pnvIs6mh06AshMakypBQUltW6dVCrE": {
			"height": 90,
			"title": "luaCondition",
			"width": 242,
			"x": 384,
			"y": 20
		},
		"tthkuqLD8Fgnt66YDSLQhAgPLkhtZNZh": {
			"height": 74,
			"title": "echo",
			"width": 221,
			"x": 1173,
			"y": -113
		}
	},
	"roles": [ {
		"categories": [],
		"name": "Role 0"
	} ],
	"root": {
		"children": [ {
			"children": [ {
				"children": [],
				"id": "8jTvZJ4Ew2F9BcVvb5eM7XcTXovyBeIK",
				"nodeType": "luaCommand",
				"parameters": [ {
					"name": "var",
					"value": "enemyLocation"
				}, {
					"name": "value",
					"value": "Vec3(Spring.GetUnitPosition(core.EnemyUnits()[1]))"
				}, {
					"name": "scriptName",
					"value": "store"
				} ],
				"scriptName": "store"
			}, {
				"children": [],
				"id": "TCDNOhR81w8SxsLwgzE2FUw0llvmPxc1",
				"nodeType": "luaCommand",
				"parameters": [ {
					"name": "msg",
					"value": "\"FOUND ENEMY\""
				}, {
					"name": "scriptName",
					"value": "echo"
				} ],
				"scriptName": "echo"
			}, {
				"children": [],
				"id": "tthkuqLD8Fgnt66YDSLQhAgPLkhtZNZh",
				"nodeType": "luaCommand",
				"parameters": [ {
					"name": "msg",
					"value": "dump(enemyLocation)"
				}, {
					"name": "scriptName",
					"value": "echo"
				} ],
				"scriptName": "echo"
			}, {
				"children": [],
				"id": "Ild5a02sGK6OLTACkKB0b5PwBY9B06Od",
				"nodeType": "failure",
				"parameters": []
			} ],
			"id": "IIjPoDKnC8CiHpbvXHHVpf5jOjzoNOoh",
			"nodeType": "sequence",
			"parameters": []
		}, {
			"children": [],
			"id": "X1OjvniwsFUvkD5ixWyYlxQnCqC83bB3",
			"nodeType": "luaCommand",
			"parameters": [ {
				"name": "position",
				"value": "location"
			}, {
				"name": "unitsToMove",
				"value": "{scout}"
			}, {
				"name": "fight",
				"value": "true"
			}, {
				"name": "scriptName",
				"value": "nota_hrdlicm7_lucretia.MoveCustomGroup"
			} ],
			"scriptName": "nota_hrdlicm7_lucretia.MoveCustomGroup"
		} ],
		"id": "c9pnvIs6mh06AshMakypBQUltW6dVCrE",
		"nodeType": "luaCondition",
		"parameters": [ {
			"name": "expression",
			"value": "#core.EnemyUnits() > 1"
		}, {
			"name": "repeat",
			"value": "false"
		} ]
	}
}