{
	"additionalNodes": [],
	"additionalParameters": {
		"root": {
			"height": 88,
			"width": 180
		}
	},
	"inputs": [],
	"outputs": [],
	"properties": {
		"Je9KETuJtTeefkC4iFq2t8hVSCx7zxhy": {
			"height": 60,
			"title": "sequence",
			"width": 143,
			"x": 263,
			"y": 10
		},
		"NhUFjxbx93f6qN2yTRBilxtSbKbwMXSv": {
			"height": 112,
			"title": "nota_hrdlicm7_lucretia.MoveSweepFormation",
			"width": 352,
			"x": 600,
			"y": 110
		},
		"jvPYnoZVmH66j0FMVk8u6Jc7XkMqbzx5": {
			"height": 112,
			"title": "nota_hrdlicm7_lucretia.MoveSweepFormation",
			"width": 352,
			"x": 624,
			"y": -122
		},
		"oP1WUFrm9EoA0oQN50P8LlypM6qbC4cs": {
			"height": 72,
			"title": "wait",
			"width": 131,
			"x": 611,
			"y": 14
		}
	},
	"roles": [ {
		"categories": [],
		"name": "Role 0"
	} ],
	"root": {
		"children": [ {
			"children": [],
			"id": "jvPYnoZVmH66j0FMVk8u6Jc7XkMqbzx5",
			"nodeType": "luaCommand",
			"parameters": [ {
				"name": "groupDefintion",
				"value": "units"
			}, {
				"name": "ZCoordinate",
				"value": "10"
			}, {
				"name": "fight",
				"value": "false"
			}, {
				"name": "scriptName",
				"value": "nota_hrdlicm7_lucretia.MoveSweepFormation"
			} ],
			"scriptName": "nota_hrdlicm7_lucretia.MoveSweepFormation"
		}, {
			"children": [],
			"id": "oP1WUFrm9EoA0oQN50P8LlypM6qbC4cs",
			"nodeType": "wait",
			"parameters": [ {
				"name": "time",
				"value": 3
			} ]
		}, {
			"children": [],
			"id": "NhUFjxbx93f6qN2yTRBilxtSbKbwMXSv",
			"nodeType": "luaCommand",
			"parameters": [ {
				"name": "groupDefintion",
				"value": "units"
			}, {
				"name": "ZCoordinate",
				"value": "Game.mapSizeZ-10"
			}, {
				"name": "fight",
				"value": "false"
			}, {
				"name": "scriptName",
				"value": "nota_hrdlicm7_lucretia.MoveSweepFormation"
			} ],
			"scriptName": "nota_hrdlicm7_lucretia.MoveSweepFormation"
		} ],
		"id": "Je9KETuJtTeefkC4iFq2t8hVSCx7zxhy",
		"nodeType": "sequence",
		"parameters": []
	}
}